^C:\USERS\123\DOCUMENTS\VISUAL STUDIO 2017\PROJECTS\0A\0A\MODULE1.CPP
/c /ZI /nologo /W3 /WX- /diagnostics:classic /Od /Oy- /D WIN32 /D _DEBUG /D _CONSOLE /D _UNICODE /D UNICODE /Gm /EHsc /RTC1 /MDd /GS /fp:precise /Zc:wchar_t /Zc:forScope /Zc:inline /Fo"DEBUG\\" /Fd"DEBUG\VC141.PDB" /Gd /TP /analyze- C:\USERS\123\DOCUMENTS\VISUAL STUDIO 2017\PROJECTS\0A\0A\MODULE1.CPP
^C:\USERS\123\DOCUMENTS\VISUAL STUDIO 2017\PROJECTS\0A\0A\MODULE2.CPP
/c /ZI /nologo /W3 /WX- /diagnostics:classic /Od /Oy- /D WIN32 /D _DEBUG /D _CONSOLE /D _UNICODE /D UNICODE /Gm /EHsc /RTC1 /MDd /GS /fp:precise /Zc:wchar_t /Zc:forScope /Zc:inline /Fo"DEBUG\\" /Fd"DEBUG\VC141.PDB" /Gd /TP /analyze- C:\USERS\123\DOCUMENTS\VISUAL STUDIO 2017\PROJECTS\0A\0A\MODULE2.CPP
^C:\USERS\123\DOCUMENTS\VISUAL STUDIO 2017\PROJECTS\0A\0A\MODULE3.CPP
/c /ZI /nologo /W3 /WX- /diagnostics:classic /Od /Oy- /D WIN32 /D _DEBUG /D _CONSOLE /D _UNICODE /D UNICODE /Gm /EHsc /RTC1 /MDd /GS /fp:precise /Zc:wchar_t /Zc:forScope /Zc:inline /Fo"DEBUG\\" /Fd"DEBUG\VC141.PDB" /Gd /TP /analyze- C:\USERS\123\DOCUMENTS\VISUAL STUDIO 2017\PROJECTS\0A\0A\MODULE3.CPP
^C:\USERS\123\DOCUMENTS\VISUAL STUDIO 2017\PROJECTS\0A\0A\SOURCE.CPP
/c /ZI /nologo /W3 /WX- /diagnostics:classic /Od /Oy- /D WIN32 /D _DEBUG /D _CONSOLE /D _UNICODE /D UNICODE /Gm /EHsc /RTC1 /MDd /GS /fp:precise /Zc:wchar_t /Zc:forScope /Zc:inline /Fo"DEBUG\\" /Fd"DEBUG\VC141.PDB" /Gd /TP /analyze- C:\USERS\123\DOCUMENTS\VISUAL STUDIO 2017\PROJECTS\0A\0A\SOURCE.CPP
