^C:\USERS\123\DOCUMENTS\VISUAL STUDIO 2017\PROJECTS\0A\0A\DEBUG\MODULE1.OBJ|C:\USERS\123\DOCUMENTS\VISUAL STUDIO 2017\PROJECTS\0A\0A\DEBUG\MODULE2.OBJ|C:\USERS\123\DOCUMENTS\VISUAL STUDIO 2017\PROJECTS\0A\0A\DEBUG\MODULE3.OBJ|C:\USERS\123\DOCUMENTS\VISUAL STUDIO 2017\PROJECTS\0A\0A\DEBUG\SOURCE.OBJ
C:\USERS\123\DOCUMENTS\VISUAL STUDIO 2017\PROJECTS\0A\DEBUG\0A.ILK
C:\USERS\123\DOCUMENTS\VISUAL STUDIO 2017\PROJECTS\0A\DEBUG\0A.EXE
C:\USERS\123\DOCUMENTS\VISUAL STUDIO 2017\PROJECTS\0A\DEBUG\0A.PDB
